<svg width="95" height="56" viewBox="0 0 95 56" fill="none" xmlns="http://www.w3.org/2000/svg">
<path d="M13.043 31.9266C13.043 34.5128 11.2725 36.2542 7.35174 36.2542H0V20.2147H7.1345C10.5378 20.2147 12.3615 21.7666 12.3615 24.4088C12.3615 26.2886 11.2732 27.5962 9.55809 28.0307C11.8177 28.4936 13.043 30.0198 13.043 31.9266ZM4.41063 26.8871H6.12715C7.2701 26.8871 7.97925 26.4512 7.97925 25.3615C7.97925 24.2718 7.2708 23.8359 6.12715 23.8359H4.41063V26.8871ZM4.41063 32.579H6.72561C7.8409 32.579 8.4684 32.0892 8.4684 31.1635C8.4684 30.2364 7.8409 29.7458 6.72561 29.7458H4.41063V32.579Z" fill="white"/>
<path d="M21.7294 33.9144C21.3738 35.5756 20.0945 36.5809 17.9442 36.5809C15.6569 36.5809 14.0504 35.166 14.0504 32.1986V23.6735H18.4604V31.2715C18.4604 32.5252 18.8139 33.2869 19.8226 33.2869C20.967 33.2869 21.6761 32.2526 21.6761 30.2109V23.6735H26.0861V36.2543H22.1376L21.7294 33.9144Z" fill="white"/>
<path d="M30.5762 31.9266C30.8225 32.9623 31.6119 33.5047 32.5646 33.5047C33.3547 33.5047 33.8992 33.2321 33.8992 32.6883C33.8992 32.1438 33.4378 31.8982 32.5377 31.7087L30.8488 31.3537C28.5615 30.8632 27.3632 29.6926 27.3632 27.6218C27.3632 24.5728 29.9785 23.3738 32.7833 23.3738C35.8046 23.3738 37.6298 24.6267 38.0649 26.968L34.0618 27.5679C33.9255 26.8594 33.4917 26.4512 32.6456 26.4512C32.0208 26.4512 31.5843 26.7508 31.5843 27.2406C31.5843 27.7311 31.9378 27.9761 32.5916 28.0854L34.2798 28.3856C37.0562 28.8485 38.2282 30.3457 38.2282 32.4704C38.2282 35.4385 35.642 36.5807 32.5377 36.5807C29.6782 36.5807 27.7721 35.5471 27.0643 33.3138L30.5762 31.9266Z" fill="white"/>
<path d="M41.6847 18.2266C42.993 18.2266 44.109 19.1253 44.109 20.5415C44.109 21.9578 42.993 22.8565 41.6847 22.8565C40.3791 22.8565 39.2625 21.9578 39.2625 20.5415C39.2625 19.1253 40.3798 18.2266 41.6847 18.2266ZM43.891 23.6736V36.2544H39.5081V23.6736H43.891Z" fill="white"/>
<path d="M50.1539 26.0976C50.807 24.2179 52.2786 23.3738 54.1563 23.3738C56.09 23.3738 57.8329 24.5167 57.8329 27.4046V36.2542H53.4492V29.0934C53.4492 27.8128 53.0666 27.0234 51.952 27.0234C50.9993 27.0234 50.1822 27.5955 50.1822 29.5293V36.2542H45.7965V23.6734H49.7457L50.1539 26.0976Z" fill="white"/>
<path d="M67.2781 31.7087L70.9284 32.8516C70.2186 35.5471 67.9859 36.5807 65.4807 36.5807C61.7515 36.5807 59.0291 34.2132 59.0291 30.1001C59.0291 25.8513 61.4243 23.3738 65.3734 23.3738C69.1033 23.3738 71.0094 25.7704 71.0094 29.2567C71.0094 29.7189 71.0094 30.2647 70.9547 30.8362H63.275C63.358 32.3894 64.1191 33.2314 65.4274 33.2314C66.3545 33.2321 66.9799 32.8239 67.2781 31.7087ZM66.8443 28.6036C66.8443 27.5132 66.4631 26.5598 65.2371 26.5598C64.1751 26.5598 63.4957 27.4316 63.3864 28.6036H66.8443Z" fill="white"/>
<path d="M75.0395 31.9266C75.2851 32.9623 76.0731 33.5047 77.0265 33.5047C77.8159 33.5047 78.3604 33.2321 78.3604 32.6883C78.3604 32.1438 77.899 31.8982 76.9995 31.7087L75.3107 31.3537C73.0234 30.8632 71.8265 29.6926 71.8265 27.6218C71.8265 24.5728 74.4403 23.3738 77.2458 23.3738C80.2693 23.3738 82.093 24.6267 82.5282 26.968L78.5244 27.5679C78.3881 26.8594 77.9529 26.4512 77.1082 26.4512C76.482 26.4512 76.0455 26.7508 76.0455 27.2406C76.0455 27.7311 76.399 27.9761 77.0521 28.0854L78.7437 28.3856C81.5209 28.8485 82.6915 30.3457 82.6915 32.4704C82.6915 35.4385 80.1046 36.5807 76.9995 36.5807C74.1401 36.5807 72.2361 35.5471 71.5255 33.3138L75.0395 31.9266Z" fill="white"/>
<path d="M86.6933 31.9266C86.9382 32.9623 87.729 33.5047 88.681 33.5047C89.4704 33.5047 90.017 33.2321 90.017 32.6883C90.017 32.1438 89.5534 31.8982 88.6533 31.7087L86.9666 31.3537C84.6793 30.8632 83.4789 29.6926 83.4789 27.6218C83.4789 24.5728 86.0941 23.3738 88.8996 23.3738C91.9217 23.3738 93.7461 24.6267 94.182 26.968L90.1768 27.5679C90.0426 26.8594 89.6067 26.4512 88.7619 26.4512C88.1358 26.4512 87.7006 26.7508 87.7006 27.2406C87.7006 27.7311 88.0542 27.9761 88.7073 28.0854L90.3954 28.3856C93.1746 28.8485 94.3446 30.3457 94.3446 32.4704C94.3446 35.4385 91.757 36.5807 88.6526 36.5807C85.7938 36.5807 83.8891 35.5471 83.1786 33.3138L86.6933 31.9266Z" fill="white"/>
<path d="M8.98454 55.6735C8.4691 55.2383 8.27815 54.6392 8.08788 53.8767L7.59667 51.8883C7.32476 50.7453 6.86189 50.5267 5.82617 50.5267H4.43831V55.6735H0V39.6382H6.8612C10.4547 39.6382 12.9337 41.0254 12.9337 44.6729C12.9337 47.2051 11.2995 48.4581 9.53042 48.7569C10.9999 49.0565 11.7361 49.7083 12.1173 51.0982L12.879 53.8477C13.07 54.5568 13.2872 55.1013 13.8594 55.6728L8.98454 55.6735ZM4.43831 46.9339H6.15413C7.70529 46.9339 8.38677 46.305 8.38677 45.1634C8.38677 44.0191 7.70529 43.3929 6.15413 43.3929H4.43831V46.9339Z" fill="white"/>
<path d="M21.8373 51.1265L25.4855 52.2695C24.7784 54.9657 22.5437 56 20.0398 56C16.3086 56 13.5854 53.6311 13.5854 49.5207C13.5854 45.2727 15.9821 42.7944 19.9305 42.7944C23.6604 42.7944 25.5665 45.1904 25.5665 48.6753C25.5665 49.1374 25.5664 49.6819 25.5118 50.2555H17.8356C17.9172 51.8052 18.6796 52.6486 19.9866 52.6486C20.9109 52.6486 21.5377 52.2432 21.8373 51.1265ZM21.4014 48.0215C21.4014 46.9345 21.0202 45.9805 19.7956 45.9805C18.7343 45.9805 18.0528 46.8508 17.9442 48.0215H21.4014Z" fill="white"/>
<path d="M25.2412 43.0956H29.8684L31.3123 48.1593C31.8298 49.9838 32.1287 51.2374 32.1287 51.2374H32.1834C32.1834 51.2374 32.456 49.9838 33.0288 48.1593L34.6623 43.0956H38.936L34.3634 55.6743H29.6256L25.2412 43.0956Z" fill="white"/>
<path d="M42.0667 37.6512C43.3736 37.6512 44.4917 38.55 44.4917 39.9655C44.4917 41.3811 43.3736 42.2784 42.0667 42.2784C40.7605 42.2784 39.6438 41.3811 39.6438 39.9655C39.6438 38.55 40.7605 37.6512 42.0667 37.6512ZM44.2724 43.0955V55.6736H39.888V43.0955H44.2724Z" fill="white"/>
<path d="M53.8837 51.1265L57.5312 52.2695C56.8234 54.9657 54.5908 56 52.0862 56C48.3557 56 45.6339 53.6311 45.6339 49.5207C45.6339 45.2727 48.0298 42.7944 51.979 42.7944C55.7074 42.7944 57.6142 45.1904 57.6142 48.6753C57.6142 49.1374 57.6142 49.6819 57.5595 50.2555H49.8813C49.9622 51.8052 50.7232 52.6486 52.0309 52.6486C52.9587 52.6486 53.5848 52.2432 53.8837 51.1265ZM53.4485 48.0215C53.4485 46.9345 53.0673 45.9805 51.842 45.9805C50.7786 45.9805 50.0978 46.8508 49.9913 48.0215H53.4485Z" fill="white"/>
<path d="M69.3773 43.0956L70.2753 47.4771C70.7382 49.7382 70.9831 51.4263 70.9831 51.4263H71.0363C71.0363 51.4263 71.3089 49.7644 71.8258 47.5318L72.8338 43.0956H77.1075L73.7049 55.6743H68.7781L68.015 51.9978C67.6344 50.1457 67.3328 47.9684 67.3328 47.9684H67.2802C67.2802 47.9684 66.9793 50.1457 66.5994 51.9978L65.8363 55.6743H60.9358L57.5319 43.0956H61.9716L62.9782 47.5318C63.4957 49.7644 63.7676 51.4263 63.7676 51.4263H63.8223C63.8223 51.4263 64.0672 49.7382 64.5294 47.4771L65.4302 43.0956H69.3773Z" fill="white"/>
<path d="M26.688 12.6902C26.688 13.2886 26.8526 13.6152 27.3148 13.6152C27.586 13.6152 27.86 13.5072 28.1049 13.3702V16.4753C27.5057 16.9112 26.935 17.0745 25.9269 17.0745C24.2388 17.0745 23.3131 16.3107 22.8218 15.0854C22.1141 16.393 20.9967 17.1284 19.2013 17.1284C16.8884 17.1284 15.4431 15.7662 15.4431 13.6145C15.4431 10.9183 17.3762 9.55738 21.1607 9.55738H22.4413V8.71331C22.4413 7.89622 22.1701 7.32405 21.38 7.32405C20.6169 7.32405 20.2647 7.78691 20.21 8.82262L16.0153 8.16881C16.2616 5.58193 18.277 3.94775 21.5163 3.94775C25.1112 3.94775 26.6893 5.52728 26.6893 8.27882L26.688 12.6902ZM22.4399 11.7914H21.8698C20.2896 11.7914 19.7444 12.2806 19.7444 13.0984C19.7444 13.6975 20.1526 14.1604 20.9157 14.1604C21.6505 14.1604 22.4399 13.7791 22.4399 12.6085V11.7914Z" fill="white"/>
<path d="M37.3897 9.20378C36.8722 9.01213 36.5713 8.87722 35.8642 8.87722C34.8299 8.87722 33.5783 9.28542 33.5783 11.5188V16.8302H29.1912V4.24658H32.9501L33.3859 7.35166C33.7395 5.25393 35.5099 4.24658 37.6609 4.24658L37.3897 9.20378Z" fill="white"/>
<path d="M38.0872 4.24658H42.7185L44.1603 9.3124C44.6778 11.1368 44.976 12.3898 44.976 12.3898H45.0321C45.0321 12.3898 45.304 11.1368 45.8755 9.3124L47.5089 4.24658H51.7847L47.21 16.8295H42.4708L38.0872 4.24658Z" fill="white"/>
<path d="M62.3486 12.6901C62.3486 13.2886 62.5118 13.6152 62.9761 13.6152C63.2473 13.6152 63.5192 13.5072 63.7655 13.3702V16.4753C63.1657 16.9112 62.5942 17.0745 61.5861 17.0745C59.8994 17.0745 58.973 16.3106 58.4817 15.0854C57.774 16.393 56.6587 17.1284 54.8619 17.1284C52.5463 17.1284 51.103 15.7661 51.103 13.6145C51.103 10.9183 53.0347 9.55737 56.8206 9.55737H58.1005V8.71329C58.1005 7.8962 57.8286 7.32403 57.0392 7.32403C56.2754 7.32403 55.9219 7.78689 55.8679 8.82261L51.6745 8.16881C51.9187 5.58194 53.9341 3.94775 57.1748 3.94775C60.7697 3.94775 62.3486 5.52728 62.3486 8.27882V12.6901ZM58.0998 11.7914H57.527C55.9488 11.7914 55.4043 12.2806 55.4043 13.0983C55.4043 13.6975 55.8125 14.1603 56.575 14.1603C57.3111 14.1603 58.0998 13.7791 58.0998 12.6085V11.7914Z" fill="white"/>
<path d="M73.0484 9.20378C72.5309 9.01213 72.2334 8.87722 71.5228 8.87722C70.4892 8.87722 69.2369 9.28542 69.2369 11.5188V16.8302H64.8533V4.24658H68.6115L69.0453 7.35166C69.4002 5.25393 71.1707 4.24658 73.3217 4.24658L73.0484 9.20378Z" fill="white"/>
<path d="M82.605 0H87.0177V16.8303H83.0408L82.6333 14.6509C82.1698 16.339 80.6719 17.1568 78.7658 17.1568C75.8247 17.1568 73.7277 14.8688 73.7277 10.7834C73.7277 6.56232 75.7438 3.94846 79.2833 3.94846C80.8919 3.94846 82.1691 4.68322 82.6043 5.88222L82.605 0ZM82.634 9.63904C82.634 8.03391 81.8432 7.16147 80.564 7.16147C79.284 7.16147 78.195 8.11486 78.195 10.6208C78.195 12.6908 79.0668 13.7791 80.5086 13.7791C81.6267 13.7791 82.634 12.9351 82.634 11.2199V9.63904Z" fill="white"/>
<path d="M0 16.8302V0.789307H4.46598V6.75179H9.96697V0.789307H14.4323V16.8302H9.96697V10.62H4.46598V16.8302H0Z" fill="white"/>
</svg>
